…
All without needing a separate Selenium or Splash server instance.

### Content++

We can also get a HAR-like content + metadata dump:

``` r
xdf <- wc_inspect("https://rstudio.com")

colnames(xdf)
## [1] "method"         "url"            "status_code"    "message"        "content"        "content_length"
## [7] "content_type"   "load_time"      "headers"

select(xdf, method, url, status_code, content_length, load_time)
## # A tibble: 168 x 5
##    method url                                                                       status_code content_length load_time
##    <chr>  <chr>                                                                           <int>          <dbl>     <dbl>
##  1 GET    https://rstudio.com/                                                              302            154       278
##  2 GET    https://www.rstudio.com/                                                          200         125451       281
##  3 GET    https://www.rstudio.com/wp-includes/js/wp-emoji-release.min.js?ver=5.1.1          200           4426        47
##  4 GET    https://442r58kc8ke1y38f62ssb208-wpengine.netdna-ssl.com/wp-content/plug…         200           4193       147
##  5 GET    https://fonts.googleapis.com/css?family=Lato:100,300,regular,700,900%7CO…         200            820       151
##  6 GET    https://442r58kc8ke1y38f62ssb208-wpengine.netdna-ssl.com/wp-content/plug…         200           1306        24
##  7 GET    https://442r58kc8ke1y38f62ssb208-wpengine.netdna-ssl.com/wp-content/plug…         200           7102        26
##  8 GET    https://442r58kc8ke1y38f62ssb208-wpengine.netdna-ssl.com/wp-content/plug…         200           9680        23
##  9 GET    https://442r58kc8ke1y38f62ssb208-wpengine.netdna-ssl.com/wp-content/plug…         200           1001        20
## 10 GET    https://442r58kc8ke1y38f62ssb208-wpengine.netdna-ssl.com/wp-content/plug…         200            271        21
## # … with 158 more rows
…
